INFO:consensus.core.honeybadger_block:<BLOCK CREATED> Node 0 at 160.38395 with_msg_sent=1015
INFO:consensus.core.honeybadger_block:<BLOCK CREATED> Node 4 at 160.38395 with_msg_sent=1015
INFO:consensus.core.honeybadger_block:<BLOCK CREATED> Node 1 at 160.44968333333333 with_msg_sent=1035
INFO:consensus.core.honeybadger_block:<BLOCK CREATED> Node 2 at 173.53395 with_msg_sent=1090
INFO:consensus.core.honeybadger_block:<BLOCK CREATED> Node 3 at 177.57561666666666 with_msg_sent=1105
INFO:consensus.core.honeybadger_block:<BLOCK CREATED> Node 5 at 179.24228333333332 with_msg_sent=1110
INFO:__main__:<REPORT> Done. 6 out of 6 nodes outputted a block.
INFO:__main__:<REPORT> Total number of unique blocks 1.
INFO:__main__:<STATS> max ABA round = 1 ; average block creation = 168.59490555555556
INFO:__main__:<TIME> Simulation duration = 5.472300074005034
INFO:consensus.core.honeybadger_block:<BLOCK CREATED> Node 0 at 400.38768333333326 with_msg_sent=3440
INFO:consensus.core.honeybadger_block:<BLOCK CREATED> Node 1 at 400.38768333333326 with_msg_sent=3440
INFO:consensus.core.honeybadger_block:<BLOCK CREATED> Node 4 at 400.38768333333326 with_msg_sent=3440
INFO:consensus.core.honeybadger_block:<BLOCK CREATED> Node 2 at 413.53768333333323 with_msg_sent=3475
INFO:consensus.core.honeybadger_block:<BLOCK CREATED> Node 5 at 419.2460166666666 with_msg_sent=3485
INFO:consensus.core.honeybadger_block:<BLOCK CREATED> Node 3 at 427.47613333333334 with_msg_sent=3515
INFO:__main__:<REPORT> Done. 6 out of 6 nodes outputted a block.
INFO:__main__:<REPORT> Total number of unique blocks 1.
INFO:__main__:<STATS> max ABA round = 6 ; average block creation = 410.2371472222221
INFO:__main__:<TIME> Simulation duration = 9.113699239998823
INFO:consensus.core.honeybadger_block:<BLOCK CREATED> Node 0 at 361.2960166666666 with_msg_sent=5350
INFO:consensus.core.honeybadger_block:<BLOCK CREATED> Node 4 at 361.2960166666666 with_msg_sent=5350
INFO:consensus.core.honeybadger_block:<BLOCK CREATED> Node 1 at 361.65434999999997 with_msg_sent=5375
INFO:consensus.core.honeybadger_block:<BLOCK CREATED> Node 2 at 367.0210166666666 with_msg_sent=5385
INFO:consensus.core.honeybadger_block:<BLOCK CREATED> Node 5 at 368.37935 with_msg_sent=5385
INFO:consensus.core.honeybadger_block:<BLOCK CREATED> Node 3 at 370.5376833333333 with_msg_sent=5385
INFO:__main__:<REPORT> Done. 6 out of 6 nodes outputted a block.
INFO:__main__:<REPORT> Total number of unique blocks 1.
INFO:__main__:<STATS> max ABA round = 5 ; average block creation = 365.03073888888883
INFO:__main__:<TIME> Simulation duration = 9.19980913499603
INFO:consensus.core.honeybadger_block:<BLOCK CREATED> Node 0 at 160.44968333333333 with_msg_sent=6755
INFO:consensus.core.honeybadger_block:<BLOCK CREATED> Node 1 at 160.44968333333333 with_msg_sent=6755
INFO:consensus.core.honeybadger_block:<BLOCK CREATED> Node 4 at 160.44968333333333 with_msg_sent=6755
INFO:consensus.core.honeybadger_block:<BLOCK CREATED> Node 2 at 173.59968333333333 with_msg_sent=6825
INFO:consensus.core.honeybadger_block:<BLOCK CREATED> Node 3 at 177.64135 with_msg_sent=6855
INFO:consensus.core.honeybadger_block:<BLOCK CREATED> Node 5 at 179.30801666666667 with_msg_sent=6860
INFO:__main__:<REPORT> Done. 6 out of 6 nodes outputted a block.
INFO:__main__:<REPORT> Total number of unique blocks 1.
INFO:__main__:<STATS> max ABA round = 1 ; average block creation = 168.64968333333331
INFO:__main__:<TIME> Simulation duration = 8.399030970002059
INFO:consensus.core.honeybadger_block:<BLOCK CREATED> Node 0 at 158.22101666666666 with_msg_sent=8480
INFO:consensus.core.honeybadger_block:<BLOCK CREATED> Node 4 at 158.22101666666666 with_msg_sent=8480
INFO:consensus.core.honeybadger_block:<BLOCK CREATED> Node 1 at 158.57935 with_msg_sent=8500
INFO:consensus.core.honeybadger_block:<BLOCK CREATED> Node 2 at 171.37101666666666 with_msg_sent=8585
INFO:consensus.core.honeybadger_block:<BLOCK CREATED> Node 3 at 175.41268333333332 with_msg_sent=8620
INFO:consensus.core.honeybadger_block:<BLOCK CREATED> Node 5 at 177.07934999999998 with_msg_sent=8625
INFO:__main__:<REPORT> Done. 6 out of 6 nodes outputted a block.
INFO:__main__:<REPORT> Total number of unique blocks 1.
INFO:__main__:<STATS> max ABA round = 1 ; average block creation = 166.48073888888888
INFO:__main__:<TIME> Simulation duration = 5.578916115016909
INFO:consensus.core.honeybadger_block:<BLOCK CREATED> Node 4 at 115.96268333333335 with_msg_sent=9680
INFO:consensus.core.honeybadger_block:<BLOCK CREATED> Node 0 at 115.96268333333335 with_msg_sent=9680
INFO:consensus.core.honeybadger_block:<BLOCK CREATED> Node 1 at 116.32101666666668 with_msg_sent=9715
INFO:consensus.core.honeybadger_block:<BLOCK CREATED> Node 2 at 129.11268333333334 with_msg_sent=9805
INFO:consensus.core.honeybadger_block:<BLOCK CREATED> Node 5 at 133.02935000000002 with_msg_sent=9820
INFO:consensus.core.honeybadger_block:<BLOCK CREATED> Node 3 at 133.15435000000002 with_msg_sent=9830
INFO:__main__:<REPORT> Done. 6 out of 6 nodes outputted a block.
INFO:__main__:<REPORT> Total number of unique blocks 1.
INFO:__main__:<STATS> max ABA round = 0 ; average block creation = 123.92379444444445
INFO:__main__:<TIME> Simulation duration = 3.726514947018586
INFO:consensus.core.honeybadger_block:<BLOCK CREATED> Node 4 at 115.96268333333335 with_msg_sent=10740
INFO:consensus.core.honeybadger_block:<BLOCK CREATED> Node 0 at 115.96268333333335 with_msg_sent=10740
INFO:consensus.core.honeybadger_block:<BLOCK CREATED> Node 1 at 116.32101666666668 with_msg_sent=10775
INFO:consensus.core.honeybadger_block:<BLOCK CREATED> Node 2 at 129.11268333333334 with_msg_sent=10865
INFO:consensus.core.honeybadger_block:<BLOCK CREATED> Node 5 at 133.02935000000002 with_msg_sent=10880
INFO:consensus.core.honeybadger_block:<BLOCK CREATED> Node 3 at 133.15435000000002 with_msg_sent=10890
INFO:__main__:<REPORT> Done. 6 out of 6 nodes outputted a block.
INFO:__main__:<REPORT> Total number of unique blocks 1.
INFO:__main__:<STATS> max ABA round = 0 ; average block creation = 123.92379444444445
INFO:__main__:<TIME> Simulation duration = 3.7053748879989143
INFO:consensus.core.honeybadger_block:<BLOCK CREATED> Node 0 at 302.84135000000003 with_msg_sent=12750
INFO:consensus.core.honeybadger_block:<BLOCK CREATED> Node 4 at 302.84135000000003 with_msg_sent=12750
INFO:consensus.core.honeybadger_block:<BLOCK CREATED> Node 2 at 315.99135 with_msg_sent=12805
INFO:consensus.core.honeybadger_block:<BLOCK CREATED> Node 1 at 317.61075 with_msg_sent=12825
INFO:consensus.core.honeybadger_block:<BLOCK CREATED> Node 3 at 320.0330166666667 with_msg_sent=12845
INFO:consensus.core.honeybadger_block:<BLOCK CREATED> Node 5 at 321.6996833333334 with_msg_sent=12850
INFO:__main__:<REPORT> Done. 6 out of 6 nodes outputted a block.
INFO:__main__:<REPORT> Total number of unique blocks 1.
INFO:__main__:<STATS> max ABA round = 4 ; average block creation = 313.50291666666675
INFO:__main__:<TIME> Simulation duration = 8.034683112986386
INFO:consensus.core.honeybadger_block:<BLOCK CREATED> Node 4 at 118.12561666666667 with_msg_sent=13715
INFO:consensus.core.honeybadger_block:<BLOCK CREATED> Node 0 at 118.12561666666667 with_msg_sent=13715
INFO:consensus.core.honeybadger_block:<BLOCK CREATED> Node 1 at 118.48395000000001 with_msg_sent=13735
INFO:consensus.core.honeybadger_block:<BLOCK CREATED> Node 2 at 131.27561666666668 with_msg_sent=13830
INFO:consensus.core.honeybadger_block:<BLOCK CREATED> Node 5 at 135.19228333333334 with_msg_sent=13850
INFO:consensus.core.honeybadger_block:<BLOCK CREATED> Node 3 at 135.31728333333334 with_msg_sent=13855
INFO:__main__:<REPORT> Done. 6 out of 6 nodes outputted a block.
INFO:__main__:<REPORT> Total number of unique blocks 1.
INFO:__main__:<STATS> max ABA round = 0 ; average block creation = 126.08672777777777
INFO:__main__:<TIME> Simulation duration = 5.5035678220156115
INFO:consensus.core.honeybadger_block:<BLOCK CREATED> Node 0 at 158.22101666666666 with_msg_sent=15360
INFO:consensus.core.honeybadger_block:<BLOCK CREATED> Node 4 at 158.22101666666666 with_msg_sent=15360
INFO:consensus.core.honeybadger_block:<BLOCK CREATED> Node 1 at 158.57935 with_msg_sent=15395
INFO:consensus.core.honeybadger_block:<BLOCK CREATED> Node 2 at 171.37101666666666 with_msg_sent=15465
INFO:consensus.core.honeybadger_block:<BLOCK CREATED> Node 3 at 175.41268333333332 with_msg_sent=15490
INFO:consensus.core.honeybadger_block:<BLOCK CREATED> Node 5 at 177.07934999999998 with_msg_sent=15500
INFO:__main__:<REPORT> Done. 6 out of 6 nodes outputted a block.
INFO:__main__:<REPORT> Total number of unique blocks 1.
INFO:__main__:<STATS> max ABA round = 1 ; average block creation = 166.48073888888888
INFO:__main__:<TIME> Simulation duration = 6.148763934004819
